KSH;1;Beograd;11000
KJU;1;Beograd;11000
FNR;1;Beograd;11000
SFR;1;Beograd;11000
SRJ;1;Beograd;11000
SCG;1;Beograd;11000
SRB;1;Beograd;11000
SRB;2;Novi Sad;21000
SRB;3;Niš;31000
SRB;4;Subotica;24000
SRB;5;Sombor;25000
SRB;6;Zrenjanin;23101
